<svg width="240" height="20" viewBox="0 0 240 20" fill="none" xmlns="http://www.w3.org/2000/svg">
<path d="M-164 0H-160V4H-164V0Z" fill="#196d80"/>
<path d="M-144 0H-140V4H-144V0Z" fill="#196d80"/>
<path d="M-124 0H-120V4H-124V0Z" fill="#196d80"/>
<path d="M-104 0H-100V4H-104V0Z" fill="#196d80"/>
<path d="M-84 0H-80V4H-84V0Z" fill="#196d80"/>
<path d="M-64 0H-60V4H-64V0Z" fill="#196d80"/>
<path d="M-44 0H-40V4H-44V0Z" fill="#196d80"/>
<path d="M-24 0H-20V4H-24V0Z" fill="#196d80"/>
<path d="M-4 0H0V4H-4V0Z" fill="#196d80"/>
<path d="M16 0H20V4H16V0Z" fill="#196d80"/>
<path d="M36 0H40V4H36V0Z" fill="#196d80"/>
<path d="M56 0H60V4H56V0Z" fill="#196d80"/>
<path d="M76 0H80V4H76V0Z" fill="#196d80"/>
<path d="M96 0H100V4H96V0Z" fill="#196d80"/>
<path d="M116 0H120V4H116V0Z" fill="#196d80"/>
<path d="M136 0H140V4H136V0Z" fill="#196d80"/>
<path d="M156 0H160V4H156V0Z" fill="#196d80"/>
<path d="M176 0H180V4H176V0Z" fill="#196d80"/>
<path d="M196 0H200V4H196V0Z" fill="#196d80"/>
<path d="M216 0H220V4H216V0Z" fill="#196d80"/>
<path d="M236 0H240V4H236V0Z" fill="#196d80"/>
</svg>
